[{
    "empId": 1,
    "empName": "Employee 1",
    "email": "employee1@tcs.com",
    "chats": [{
        "chatUnread": true,
        "chatDetails": []
    }]
}, {
    "empId": 2,
    "empName": "Employee 2",
    "email": "employee2@tcs.com",
    "chats": [{
        "chatUnread": true,
        "chatDetails": []
    }]
}, {
    "empId": 3,
    "empName": "Employee 3",
    "email": "employee3@tcs.com",
    "chats": [{
        "chatUnread": true,
        "chatDetails": []
    }]
}, {
    "empId": 4,
    "empName": "Employee 4",
    "email": "employee4@tcs.com",
    "chats": [{
        "chatUnread": true,
        "chatDetails": []
    }]
}, {
    "empId": 5,
    "empName": "Employee 5",
    "email": "employee5@tcs.com",
    "chats": [{
        "chatUnread": false,
        "chatDetails": []
    }]
}, {
    "empId": 6,
    "empName": "Employee 6",
    "email": "employee6@tcs.com",
    "chats": [{
        "chatUnread": false,
        "chatDetails": []
    }]
}, {
    "empId": 7,
    "empName": "Employee 7",
    "email": "employee7@tcs.com",
    "chats": []
}, {
    "empId": 8,
    "empName": "Employee 8",
    "email": "employee8@tcs.com",
    "chats": []
}, {
    "empId": 9,
    "empName": "Employee 9",
    "email": "employee9@tcs.com",
    "chats": []
}, {
    "empId": 10,
    "empName": "Employee 10",
    "email": "employee10@tcs.com",
    "chats": []
}, {
    "empId": 11,
    "empName": "Employee 11",
    "email": "employee11@tcs.com",
    "chats": []
}, {
    "empId": 12,
    "empName": "Employee 12",
    "email": "employee12@tcs.com",
    "chats": []
}]
